<svg width="500" height="400" viewBox="0 0 500 400" fill="none" xmlns="http://www.w3.org/2000/svg">
<g filter="url(#filter0_f_1569_272)">
<rect x="99.7368" y="84.3032" width="294.75" height="187.832" rx="8.18615" fill="#673AB7"/>
</g>
<rect x="102.737" y="80.3032" width="294.75" height="187.832" rx="8.18615" fill="url(#paint0_linear_1569_272)"/>
<g opacity="0.8" filter="url(#filter1_f_1569_272)">
<path d="M196.982 146.617L150.465 232.731C149.974 233.64 150.632 234.744 151.666 234.744H347.995C349.142 234.744 349.777 233.416 349.058 232.523L305.333 178.265C304.815 177.622 303.849 177.583 303.281 178.182L261.456 222.248C260.885 222.849 259.913 222.806 259.398 222.157L199.251 146.417C198.642 145.65 197.448 145.755 196.982 146.617Z" fill="#FA85FC"/>
<path d="M196.982 146.617L150.465 232.731C149.974 233.64 150.632 234.744 151.666 234.744H347.995C349.142 234.744 349.777 233.416 349.058 232.523L305.333 178.265C304.815 177.622 303.849 177.583 303.281 178.182L261.456 222.248C260.885 222.849 259.913 222.806 259.398 222.157L199.251 146.417C198.642 145.65 197.448 145.755 196.982 146.617Z" stroke="#FA85FC" stroke-width="7"/>
</g>
<g opacity="0.8" filter="url(#filter2_f_1569_272)">
<circle cx="297.365" cy="127.936" r="14.2411" fill="#FA85FC"/>
<circle cx="297.365" cy="127.936" r="14.2411" stroke="#FA85FC" stroke-width="7"/>
</g>
<path d="M195.804 148.798L151.769 230.318C150.689 232.317 152.136 234.744 154.408 234.744H344.576C347.097 234.744 348.494 231.824 346.912 229.861L306.506 179.72C305.367 178.307 303.243 178.221 301.994 179.538L262.752 220.882C261.496 222.205 259.361 222.11 258.227 220.682L200.793 148.358C199.454 146.672 196.827 146.903 195.804 148.798Z" fill="url(#paint1_linear_1569_272)"/>
<circle cx="297.365" cy="127.936" r="14.2411" fill="url(#paint2_linear_1569_272)"/>
<circle cx="402.872" cy="87.2453" r="25.5044" transform="rotate(13.7709 402.872 87.2453)" fill="#F4FBFF" fill-opacity="0.08"/>
<circle cx="402.872" cy="87.2453" r="25.5044" transform="rotate(13.7709 402.872 87.2453)" fill="url(#paint3_angular_1569_272)"/>
<circle cx="402.872" cy="87.2453" r="25.5044" transform="rotate(13.7709 402.872 87.2453)" stroke="#32477C" stroke-width="1.5169"/>
<g filter="url(#filter3_f_1569_272)">
<path fill-rule="evenodd" clip-rule="evenodd" d="M417.142 77.907C417.826 78.656 417.774 79.8177 417.025 80.5018L397.735 98.1218L389.666 85.9816C389.104 85.1368 389.334 83.9969 390.179 83.4354C391.023 82.8738 392.163 83.1035 392.725 83.9482L398.422 92.5194L414.548 77.7897C415.297 77.1055 416.458 77.1581 417.142 77.907Z" fill="white"/>
<path d="M397.527 98.2602L397.688 98.5031L397.904 98.3064L417.194 80.6863C418.044 79.9091 418.104 78.5893 417.327 77.7384C416.55 76.8875 415.23 76.8278 414.379 77.6051L398.469 92.1382L392.933 83.8098C392.295 82.8501 391 82.5892 390.04 83.2271C389.08 83.8651 388.82 85.1603 389.457 86.12L397.527 98.2602Z" stroke="white" stroke-width="0.5"/>
</g>
<circle cx="74.8916" cy="280.278" r="26.1469" transform="rotate(-15.9257 74.8916 280.278)" fill="#F4FBFF" fill-opacity="0.08"/>
<circle cx="74.8916" cy="280.278" r="26.1469" transform="rotate(-15.9257 74.8916 280.278)" fill="url(#paint4_angular_1569_272)"/>
<circle cx="74.8916" cy="280.278" r="26.1469" transform="rotate(-15.9257 74.8916 280.278)" stroke="#32477C" stroke-width="1.5169"/>
<g filter="url(#filter4_f_1569_272)">
<path fill-rule="evenodd" clip-rule="evenodd" d="M82.4864 269.833C83.4324 270.489 83.667 271.788 83.0105 272.734L78.0301 279.91L84.9789 284.733C85.9249 285.39 86.1596 286.689 85.503 287.635C84.8464 288.581 83.5473 288.815 82.6013 288.159L75.6524 283.336L70.664 290.523C70.0074 291.469 68.7083 291.704 67.7623 291.048C66.8163 290.391 66.5816 289.092 67.2382 288.146L72.2267 280.958L64.812 275.812C63.866 275.156 63.6314 273.857 64.288 272.911C64.9445 271.965 66.2437 271.73 67.1897 272.386L74.6043 277.533L79.5847 270.357C80.2413 269.411 81.5404 269.176 82.4864 269.833Z" fill="white"/>
<path d="M83.2159 272.877C83.9511 271.817 83.6884 270.362 82.6289 269.627C81.5695 268.892 80.1146 269.155 79.3793 270.214L74.5415 277.185L67.3322 272.181C66.2728 271.446 64.8179 271.709 64.0826 272.768C63.3473 273.827 63.6101 275.282 64.6695 276.018L71.8788 281.021L67.0328 288.003C66.2975 289.063 66.5603 290.518 67.6197 291.253C68.6792 291.988 70.1341 291.725 70.8693 290.666L75.7153 283.684L82.4588 288.364C83.5182 289.099 84.9731 288.837 85.7084 287.777C86.4437 286.718 86.1809 285.263 85.1215 284.528L78.378 279.847L83.2159 272.877Z" stroke="white" stroke-width="0.5"/>
</g>
<path d="M397.527 98.2602L397.688 98.5031L397.904 98.3064L417.194 80.6863C418.044 79.9091 418.104 78.5893 417.327 77.7384C416.55 76.8875 415.23 76.8278 414.379 77.6051L398.469 92.1382L392.933 83.8098C392.295 82.8501 391 82.5892 390.04 83.2271C389.08 83.8651 388.82 85.1603 389.457 86.12L397.527 98.2602Z" fill="#D1C4E9" stroke="white" stroke-width="0.5"/>
<path d="M83.2159 272.877C83.9511 271.817 83.6884 270.362 82.6289 269.627C81.5695 268.892 80.1146 269.155 79.3793 270.214L74.5415 277.185L67.3322 272.181C66.2728 271.446 64.8179 271.709 64.0826 272.768C63.3473 273.827 63.6101 275.282 64.6695 276.018L71.8788 281.021L67.0328 288.003C66.2975 289.063 66.5603 290.518 67.6197 291.253C68.6792 291.988 70.1341 291.725 70.8693 290.666L75.7153 283.684L82.4588 288.364C83.5182 289.099 84.9731 288.837 85.7084 287.777C86.4437 286.718 86.1809 285.263 85.1215 284.528L78.378 279.847L83.2159 272.877Z" fill="#D1C4E9" stroke="white" stroke-width="0.5"/>
<g filter="url(#filter5_f_1569_272)">
<path d="M156.106 85.8353C155.364 81.9408 151.593 79.3772 147.699 80.1194L145.836 80.4744C144.915 80.6499 144.026 80.0454 143.85 79.1242L142.149 70.1999C140.294 60.4656 130.866 54.0552 121.131 55.9103C111.397 57.7653 104.987 67.194 106.842 76.9283L108.542 85.8525C108.718 86.7738 108.113 87.6629 107.192 87.8385L105.329 88.1934C101.435 88.9356 98.8715 92.7062 99.6136 96.6006L104.996 124.847C105.738 128.741 109.509 131.305 113.404 130.563L155.773 122.489C159.667 121.746 162.231 117.976 161.489 114.081L156.106 85.8353ZM113.903 75.5826C112.79 69.7427 116.637 64.0847 122.477 62.9718C128.317 61.8589 133.975 65.7057 135.088 71.5456L136.789 80.4699C136.964 81.3911 136.36 82.2802 135.438 82.4558L117.59 85.8571C116.669 86.0326 115.779 85.4281 115.604 84.5069L113.903 75.5826Z" fill="white"/>
<path d="M156.106 85.8353C155.364 81.9408 151.593 79.3772 147.699 80.1194L145.836 80.4744C144.915 80.6499 144.026 80.0454 143.85 79.1242L142.149 70.1999C140.294 60.4656 130.866 54.0552 121.131 55.9103C111.397 57.7653 104.987 67.194 106.842 76.9283L108.542 85.8525C108.718 86.7738 108.113 87.6629 107.192 87.8385L105.329 88.1934C101.435 88.9356 98.8715 92.7062 99.6136 96.6006L104.996 124.847C105.738 128.741 109.509 131.305 113.404 130.563L155.773 122.489C159.667 121.746 162.231 117.976 161.489 114.081L156.106 85.8353ZM113.903 75.5826C112.79 69.7427 116.637 64.0847 122.477 62.9718C128.317 61.8589 133.975 65.7057 135.088 71.5456L136.789 80.4699C136.964 81.3911 136.36 82.2802 135.438 82.4558L117.59 85.8571C116.669 86.0326 115.779 85.4281 115.604 84.5069L113.903 75.5826Z" stroke="white"/>
</g>
<g filter="url(#filter6_d_1569_272)">
<path d="M156.106 85.8353C155.364 81.9408 151.593 79.3772 147.699 80.1194L145.836 80.4744C144.915 80.6499 144.026 80.0454 143.85 79.1242L142.149 70.1999C140.294 60.4656 130.866 54.0552 121.131 55.9103C111.397 57.7653 104.987 67.194 106.842 76.9283L108.542 85.8525C108.718 86.7738 108.113 87.6629 107.192 87.8385L105.329 88.1934C101.435 88.9356 98.8715 92.7062 99.6136 96.6006L104.996 124.847C105.738 128.741 109.509 131.305 113.404 130.563L155.773 122.489C159.667 121.746 162.231 117.976 161.489 114.081L156.106 85.8353ZM113.903 75.5826C112.79 69.7427 116.637 64.0847 122.477 62.9718C128.317 61.8589 133.975 65.7057 135.088 71.5456L136.789 80.4699C136.964 81.3911 136.36 82.2802 135.438 82.4558L117.59 85.8571C116.669 86.0326 115.779 85.4281 115.604 84.5069L113.903 75.5826Z" fill="#D1C4E9"/>
<path d="M156.106 85.8353C155.364 81.9408 151.593 79.3772 147.699 80.1194L145.836 80.4744C144.915 80.6499 144.026 80.0454 143.85 79.1242L142.149 70.1999C140.294 60.4656 130.866 54.0552 121.131 55.9103C111.397 57.7653 104.987 67.194 106.842 76.9283L108.542 85.8525C108.718 86.7738 108.113 87.6629 107.192 87.8385L105.329 88.1934C101.435 88.9356 98.8715 92.7062 99.6136 96.6006L104.996 124.847C105.738 128.741 109.509 131.305 113.404 130.563L155.773 122.489C159.667 121.746 162.231 117.976 161.489 114.081L156.106 85.8353ZM113.903 75.5826C112.79 69.7427 116.637 64.0847 122.477 62.9718C128.317 61.8589 133.975 65.7057 135.088 71.5456L136.789 80.4699C136.964 81.3911 136.36 82.2802 135.438 82.4558L117.59 85.8571C116.669 86.0326 115.779 85.4281 115.604 84.5069L113.903 75.5826Z" stroke="white"/>
</g>
<path opacity="0.1" d="M250 240.492C317.533 240.492 378.653 246.206 422.873 255.437C444.988 260.053 462.84 265.541 475.146 271.615C481.301 274.652 486.033 277.818 489.218 281.067C492.401 284.314 493.994 287.594 493.994 290.883C493.994 294.171 492.401 297.451 489.218 300.698C486.033 303.947 481.301 307.113 475.146 310.15C462.84 316.224 444.988 321.712 422.873 326.328C378.653 335.559 317.533 341.273 250 341.273C182.467 341.273 121.347 335.559 77.1275 326.328C55.0122 321.712 37.1604 316.224 24.854 310.15C18.6994 307.113 13.9672 303.947 10.7823 300.698C7.59972 297.451 6.0064 294.171 6.0064 290.883C6.0064 287.594 7.59972 284.314 10.7823 281.067C13.9672 277.818 18.6994 274.652 24.854 271.615C37.1604 265.541 55.0122 260.053 77.1275 255.437C121.347 246.206 182.467 240.492 250 240.492Z" stroke="url(#paint5_linear_1569_272)" stroke-width="1.36436"/>
<path opacity="0.2" d="M250 197.613C317.533 197.613 378.653 203.327 422.873 212.558C444.988 217.174 462.84 222.662 475.146 228.736C481.301 231.773 486.033 234.939 489.218 238.188C492.401 241.435 493.994 244.715 493.994 248.003C493.994 251.292 492.401 254.572 489.218 257.819C486.033 261.068 481.301 264.234 475.146 267.271C462.84 273.345 444.988 278.833 422.873 283.449C378.653 292.68 317.533 298.394 250 298.394C182.467 298.394 121.347 292.68 77.1275 283.449C55.0122 278.833 37.1604 273.345 24.854 267.271C18.6994 264.234 13.9672 261.068 10.7823 257.819C7.59972 254.572 6.0064 251.292 6.0064 248.003C6.0064 244.715 7.59972 241.435 10.7823 238.188C13.9672 234.939 18.6994 231.773 24.854 228.736C37.1604 222.662 55.0122 217.174 77.1275 212.558C121.347 203.327 182.467 197.613 250 197.613Z" stroke="url(#paint6_linear_1569_272)" stroke-width="1.36436"/>
<path opacity="0.4" d="M250 155.315C317.533 155.315 378.653 161.03 422.873 170.26C444.988 174.876 462.84 180.364 475.146 186.438C481.301 189.475 486.033 192.642 489.218 195.89C492.401 199.137 493.994 202.417 493.994 205.706C493.994 208.994 492.401 212.275 489.218 215.521C486.033 218.77 481.301 221.936 475.146 224.974C462.84 231.047 444.988 236.535 422.873 241.152C378.653 250.382 317.533 256.096 250 256.096C182.467 256.096 121.347 250.382 77.1275 241.152C55.0122 236.535 37.1604 231.047 24.854 224.974C18.6994 221.936 13.9672 218.77 10.7823 215.521C7.59972 212.275 6.0064 208.994 6.0064 205.706C6.0064 202.417 7.59972 199.137 10.7823 195.89C13.9672 192.642 18.6994 189.475 24.854 186.438C37.1604 180.364 55.0122 174.876 77.1275 170.26C121.347 161.03 182.467 155.315 250 155.315Z" stroke="url(#paint7_linear_1569_272)" stroke-width="1.36436"/>
<circle cx="74.8917" cy="189.77" r="1.98638" fill="white"/>
<circle cx="151.364" cy="315.562" r="1.98638" fill="white"/>
<circle cx="248.126" cy="351.46" r="1.98638" fill="white"/>
<circle cx="464.601" cy="256.778" r="1.98638" fill="white"/>
<circle cx="288.934" cy="59.3066" r="1.98638" fill="white"/>
<circle cx="26.6867" cy="315.562" r="3.90301" fill="white"/>
<circle cx="436.7" cy="144.797" r="3.90301" fill="white"/>
<g filter="url(#filter7_f_1569_272)">
<path d="M28.9297 176.913V176.913C31.1885 180.654 34.9689 183.222 39.2792 183.943V183.943V183.943C35.538 186.202 32.9703 189.982 32.2497 194.292V194.292V194.292C29.991 190.551 26.2106 187.983 21.9002 187.263V187.263V187.263C25.6414 185.004 28.2091 181.224 28.9297 176.913V176.913Z" fill="white"/>
<path d="M21.6418 186.835L21.9002 187.263L21.8178 187.756C25.9842 188.452 29.6384 190.934 31.8217 194.551L32.2497 194.292L32.7428 194.375C33.4394 190.208 35.9214 186.554 39.5376 184.371L39.2792 183.943L39.3617 183.45C35.1952 182.753 31.5411 180.271 29.3578 176.655L28.9297 176.913L28.4366 176.831C27.74 180.997 25.2581 184.651 21.6418 186.835Z" stroke="white"/>
</g>
<g filter="url(#filter8_f_1569_272)">
<path d="M405.361 316.802L405.704 319.17C406.39 323.899 409.107 328.092 413.143 330.65L415.164 331.93L412.797 332.274C408.068 332.959 403.874 335.677 401.316 339.713L400.036 341.733L399.693 339.366C399.007 334.637 396.29 330.444 392.254 327.886L390.233 326.605L392.6 326.262C397.329 325.576 401.523 322.859 404.081 318.823L405.361 316.802Z" fill="white"/>
<path d="M405.856 316.73L405.662 315.393L404.939 316.535L403.658 318.555C401.179 322.468 397.113 325.102 392.529 325.767L390.161 326.11L388.824 326.304L389.965 327.028L391.986 328.308C395.899 330.788 398.533 334.853 399.198 339.438L399.541 341.805L399.735 343.142L400.458 342.001L401.739 339.98C404.218 336.068 408.284 333.433 412.868 332.769L415.236 332.425L416.573 332.231L415.432 331.508L413.411 330.228C409.498 327.748 406.864 323.683 406.199 319.098L405.856 316.73Z" stroke="white"/>
</g>
<path d="M28.9297 176.913V176.913C31.1885 180.654 34.9689 183.222 39.2792 183.943V183.943V183.943C35.538 186.202 32.9703 189.982 32.2497 194.292V194.292V194.292C29.991 190.551 26.2106 187.983 21.9002 187.263V187.263V187.263C25.6414 185.004 28.2091 181.224 28.9297 176.913V176.913Z" fill="#D1C4E9"/>
<path d="M405.361 316.802L405.704 319.17C406.39 323.899 409.107 328.092 413.143 330.65L415.164 331.93L412.797 332.274C408.068 332.959 403.874 335.677 401.316 339.713L400.036 341.733L399.693 339.366C399.007 334.637 396.29 330.444 392.254 327.886L390.233 326.605L392.6 326.262C397.329 325.576 401.523 322.859 404.081 318.823L405.361 316.802Z" fill="#D1C4E9"/>
<path d="M42.3166 129.553H41.0032V130.867H42.3166V129.553ZM42.3166 116.86H43.6301V115.547H42.3166V116.86ZM14.4089 116.86H13.0955V118.174H14.4089V116.86ZM14.4089 109.884L13.3186 109.151L13.0955 109.483V109.884H14.4089ZM40.7195 70.7118V69.3984H40.0195L39.6292 69.9795L40.7195 70.7118ZM51.2269 70.7118H52.5404V69.3984H51.2269V70.7118ZM51.2269 108.791H49.9135V110.104H51.2269V108.791ZM58.8764 108.791H60.1898V107.477H58.8764V108.791ZM58.8764 116.86V118.174H60.1898V116.86H58.8764ZM51.2269 116.86V115.547H49.9135V116.86H51.2269ZM51.2269 129.553V130.867H52.5404V129.553H51.2269ZM24.3279 108.791L23.231 108.068L21.89 110.104H24.3279V108.791ZM42.821 108.791V110.104H44.1344V108.791H42.821ZM42.821 80.7149H44.1344V76.3331L41.7241 79.9924L42.821 80.7149ZM43.6301 129.553V116.86H41.0032V129.553H43.6301ZM42.3166 115.547H14.4089V118.174H42.3166V115.547ZM15.7223 116.86V109.884H13.0955V116.86H15.7223ZM15.4992 110.616L41.8098 71.4441L39.6292 69.9795L13.3186 109.151L15.4992 110.616ZM40.7195 72.0252H51.2269V69.3984H40.7195V72.0252ZM49.9135 70.7118V108.791H52.5404V70.7118H49.9135ZM51.2269 110.104H58.8764V107.477H51.2269V110.104ZM57.5629 108.791V116.86H60.1898V108.791H57.5629ZM58.8764 115.547H51.2269V118.174H58.8764V115.547ZM49.9135 116.86V129.553H52.5404V116.86H49.9135ZM51.2269 128.24H42.3166V130.867H51.2269V128.24ZM24.3279 110.104H42.821V107.477H24.3279V110.104ZM44.1344 108.791V80.7149H41.5076V108.791H44.1344ZM41.7241 79.9924L23.231 108.068L25.4248 109.513L43.9179 81.4374L41.7241 79.9924Z" fill="white"/>
<defs>
<filter id="filter0_f_1569_272" x="91.5507" y="76.117" width="311.123" height="204.204" filterUnits="userSpaceOnUse" color-interpolation-filters="sRGB">
<feFlood flood-opacity="0" result="BackgroundImageFix"/>
<feBlend mode="normal" in="SourceGraphic" in2="BackgroundImageFix" result="shape"/>
<feGaussianBlur stdDeviation="4.09308" result="effect1_foregroundBlur_1569_272"/>
</filter>
<filter id="filter1_f_1569_272" x="137.794" y="133.4" width="224.074" height="113.843" filterUnits="userSpaceOnUse" color-interpolation-filters="sRGB">
<feFlood flood-opacity="0" result="BackgroundImageFix"/>
<feBlend mode="normal" in="SourceGraphic" in2="BackgroundImageFix" result="shape"/>
<feGaussianBlur stdDeviation="4.5" result="effect1_foregroundBlur_1569_272"/>
</filter>
<filter id="filter2_f_1569_272" x="270.624" y="101.195" width="53.4819" height="53.4821" filterUnits="userSpaceOnUse" color-interpolation-filters="sRGB">
<feFlood flood-opacity="0" result="BackgroundImageFix"/>
<feBlend mode="normal" in="SourceGraphic" in2="BackgroundImageFix" result="shape"/>
<feGaussianBlur stdDeviation="4.5" result="effect1_foregroundBlur_1569_272"/>
</filter>
<filter id="filter3_f_1569_272" x="383.684" y="71.6351" width="39.6126" height="32.4233" filterUnits="userSpaceOnUse" color-interpolation-filters="sRGB">
<feFlood flood-opacity="0" result="BackgroundImageFix"/>
<feBlend mode="normal" in="SourceGraphic" in2="BackgroundImageFix" result="shape"/>
<feGaussianBlur stdDeviation="2.58699" result="effect1_foregroundBlur_1569_272"/>
</filter>
<filter id="filter4_f_1569_272" x="58.2416" y="263.786" width="33.3079" height="33.3077" filterUnits="userSpaceOnUse" color-interpolation-filters="sRGB">
<feFlood flood-opacity="0" result="BackgroundImageFix"/>
<feBlend mode="normal" in="SourceGraphic" in2="BackgroundImageFix" result="shape"/>
<feGaussianBlur stdDeviation="2.58699" result="effect1_foregroundBlur_1569_272"/>
</filter>
<filter id="filter5_f_1569_272" x="94.9858" y="51.0906" width="71.1309" height="84.1001" filterUnits="userSpaceOnUse" color-interpolation-filters="sRGB">
<feFlood flood-opacity="0" result="BackgroundImageFix"/>
<feBlend mode="normal" in="SourceGraphic" in2="BackgroundImageFix" result="shape"/>
<feGaussianBlur stdDeviation="2" result="effect1_foregroundBlur_1569_272"/>
</filter>
<filter id="filter6_d_1569_272" x="94.0075" y="50.1122" width="73.0876" height="86.0568" filterUnits="userSpaceOnUse" color-interpolation-filters="sRGB">
<feFlood flood-opacity="0" result="BackgroundImageFix"/>
<feColorMatrix in="SourceAlpha" type="matrix" values="0 0 0 0 0 0 0 0 0 0 0 0 0 0 0 0 0 0 127 0" result="hardAlpha"/>
<feOffset/>
<feGaussianBlur stdDeviation="2.48918"/>
<feComposite in2="hardAlpha" operator="out"/>
<feColorMatrix type="matrix" values="0 0 0 0 1 0 0 0 0 1 0 0 0 0 1 0 0 0 1 0"/>
<feBlend mode="normal" in2="BackgroundImageFix" result="effect1_dropShadow_1569_272"/>
<feBlend mode="normal" in="SourceGraphic" in2="effect1_dropShadow_1569_272" result="shape"/>
</filter>
<filter id="filter7_f_1569_272" x="14.5615" y="169.575" width="32.0562" height="32.0563" filterUnits="userSpaceOnUse" color-interpolation-filters="sRGB">
<feFlood flood-opacity="0" result="BackgroundImageFix"/>
<feBlend mode="normal" in="SourceGraphic" in2="BackgroundImageFix" result="shape"/>
<feGaussianBlur stdDeviation="3.4109" result="effect1_foregroundBlur_1569_272"/>
</filter>
<filter id="filter8_f_1569_272" x="380.593" y="307.162" width="44.2105" height="44.2109" filterUnits="userSpaceOnUse" color-interpolation-filters="sRGB">
<feFlood flood-opacity="0" result="BackgroundImageFix"/>
<feBlend mode="normal" in="SourceGraphic" in2="BackgroundImageFix" result="shape"/>
<feGaussianBlur stdDeviation="3.4109" result="effect1_foregroundBlur_1569_272"/>
</filter>
<linearGradient id="paint0_linear_1569_272" x1="274.303" y1="79.4515" x2="242.197" y2="266.778" gradientUnits="userSpaceOnUse">
<stop stop-color="#372D50"/>
<stop offset="1" stop-color="#22163E"/>
</linearGradient>
<linearGradient id="paint1_linear_1569_272" x1="250.112" y1="144.797" x2="250.112" y2="234.744" gradientUnits="userSpaceOnUse">
<stop stop-color="#D1C4E9"/>
<stop offset="1" stop-color="#F4FBFF"/>
</linearGradient>
<linearGradient id="paint2_linear_1569_272" x1="297.365" y1="113.695" x2="297.365" y2="142.177" gradientUnits="userSpaceOnUse">
<stop stop-color="#D1C4E9"/>
<stop offset="1" stop-color="#F4FBFF"/>
</linearGradient>
<radialGradient id="paint3_angular_1569_272" cx="0" cy="0" r="1" gradientUnits="userSpaceOnUse" gradientTransform="translate(388.074 111.991) scale(37.5336 81.4175)">
<stop offset="0.0295131" stop-color="#9481A2"/>
<stop offset="0.383318" stop-color="#724891"/>
<stop offset="0.858182" stop-color="#90549E"/>
</radialGradient>
<radialGradient id="paint4_angular_1569_272" cx="0" cy="0" r="1" gradientUnits="userSpaceOnUse" gradientTransform="translate(59.7097 305.667) scale(38.5083 83.5317)">
<stop offset="0.0295131" stop-color="#9481A2"/>
<stop offset="0.383318" stop-color="#724891"/>
<stop offset="0.858182" stop-color="#90549E"/>
</radialGradient>
<linearGradient id="paint5_linear_1569_272" x1="242.387" y1="341.955" x2="244.126" y2="254.49" gradientUnits="userSpaceOnUse">
<stop stop-color="#D1C4E9"/>
<stop offset="1" stop-color="#D1C4E9" stop-opacity="0"/>
</linearGradient>
<linearGradient id="paint6_linear_1569_272" x1="242.387" y1="299.076" x2="244.126" y2="211.611" gradientUnits="userSpaceOnUse">
<stop stop-color="#D1C4E9"/>
<stop offset="1" stop-color="#D1C4E9" stop-opacity="0"/>
</linearGradient>
<linearGradient id="paint7_linear_1569_272" x1="242.387" y1="256.778" x2="244.126" y2="169.314" gradientUnits="userSpaceOnUse">
<stop stop-color="#D1C4E9"/>
<stop offset="1" stop-color="#D1C4E9" stop-opacity="0"/>
</linearGradient>
</defs>
</svg>
